<svg width="19" height="18" viewBox="0 0 19 18" fill="none" xmlns="http://www.w3.org/2000/svg">
<path fill-rule="evenodd" clip-rule="evenodd" d="M9.53871 3C11.5844 3 13.5405 4.07297 15.3634 5.83586C15.9853 6.43729 16.548 7.07937 17.0433 7.72172C17.3422 8.10933 17.5544 8.41425 17.6705 8.5959L17.929 9L17.6705 9.4041C17.5544 9.58575 17.3422 9.89067 17.0433 10.2783C16.548 10.9206 15.9853 11.5627 15.3634 12.1641C13.5405 13.927 11.5844 15 9.53871 15C7.49305 15 5.53695 13.927 3.714 12.1641C3.09208 11.5627 2.52944 10.9206 2.03415 10.2783C1.73527 9.89067 1.52307 9.58575 1.40689 9.4041L1.14844 9L1.40689 8.5959C1.52307 8.41425 1.73527 8.10933 2.03415 7.72172C2.52944 7.07937 3.09208 6.43729 3.714 5.83586C5.53695 4.07297 7.49305 3 9.53871 3ZM15.8554 8.63766C15.4019 8.04954 14.8863 7.46115 14.3207 6.91414C12.7506 5.39578 11.1175 4.5 9.53871 4.5C7.95991 4.5 6.32683 5.39578 4.75674 6.91414C4.19109 7.46115 3.67551 8.04954 3.22202 8.63766C3.12408 8.76468 3.03358 8.88587 2.95084 9C3.03358 9.11413 3.12408 9.23532 3.22202 9.36234C3.67551 9.95046 4.19109 10.5388 4.75674 11.0859C6.32683 12.6042 7.95991 13.5 9.53871 13.5C11.1175 13.5 12.7506 12.6042 14.3207 11.0859C14.8863 10.5388 15.4019 9.95046 15.8554 9.36234C15.9533 9.23532 16.0438 9.11413 16.1266 9C16.0438 8.88587 15.9533 8.76468 15.8554 8.63766ZM6.53871 9C6.53871 10.6569 7.88186 12 9.53871 12C11.1956 12 12.5387 10.6569 12.5387 9C12.5387 7.34315 11.1956 6 9.53871 6C7.88186 6 6.53871 7.34315 6.53871 9ZM11.0387 9C11.0387 9.82843 10.3671 10.5 9.53871 10.5C8.71029 10.5 8.03871 9.82843 8.03871 9C8.03871 8.17157 8.71029 7.5 9.53871 7.5C10.3671 7.5 11.0387 8.17157 11.0387 9Z" fill="#226CE6"/>
</svg>
